<?xml version="1.0" encoding="UTF-8" standalone="no"?><svg xmlns="http://www.w3.org/2000/svg" xmlns:xlink="http://www.w3.org/1999/xlink" contentScriptType="application/ecmascript" contentStyleType="text/css" height="52px" preserveAspectRatio="none" style="width:403px;height:52px;" version="1.1" viewBox="0 0 403 52" width="403px" zoomAndPan="magnify"><defs><filter height="300%" id="f1jbm4aep6mjl9" width="300%" x="-1" y="-1"><feGaussianBlur result="blurOut" stdDeviation="2.0"/><feColorMatrix in="blurOut" result="blurOut2" type="matrix" values="0 0 0 0 0 0 0 0 0 0 0 0 0 0 0 0 0 0 .4 0"/><feOffset dx="4.0" dy="4.0" in="blurOut2" result="blurOut3"/><feBlend in="SourceGraphic" in2="blurOut3" mode="normal"/></filter></defs><g><ellipse cx="16" cy="25" fill="#000000" filter="url(#f1jbm4aep6mjl9)" rx="10" ry="10" style="stroke: none; stroke-width: 1.0;"/><rect fill="#FEFECE" filter="url(#f1jbm4aep6mjl9)" height="33.9688" rx="12.5" ry="12.5" style="stroke: #A80036; stroke-width: 1.5;" width="94" x="46" y="8"/><text fill="#000000" font-family="sans-serif" font-size="12" lengthAdjust="spacingAndGlyphs" textLength="74" x="56" y="29.1387">First Activity</text><rect fill="#FEFECE" filter="url(#f1jbm4aep6mjl9)" height="33.9688" rx="12.5" ry="12.5" style="stroke: #A80036; stroke-width: 1.5;" width="114" x="160" y="8"/><text fill="#000000" font-family="sans-serif" font-size="12" lengthAdjust="spacingAndGlyphs" textLength="94" x="170" y="29.1387">Second Activity</text><rect fill="#FEFECE" filter="url(#f1jbm4aep6mjl9)" height="33.9688" rx="12.5" ry="12.5" style="stroke: #A80036; stroke-width: 1.5;" width="98" x="294" y="8"/><text fill="#000000" font-family="sans-serif" font-size="12" lengthAdjust="spacingAndGlyphs" textLength="78" x="304" y="29.1387">Third Activity</text><!--link start to First Activity--><path d="M26.2266,25 C31.0153,25 35.8041,25 40.5928,25 " fill="none" id="start-First Activity" style="stroke: #A80036; stroke-width: 1.0;"/><polygon fill="#A80036" points="45.7891,25,36.7891,21,40.7891,25,36.7891,29,45.7891,25" style="stroke: #A80036; stroke-width: 1.0;"/><!--link First Activity to Second Activity--><path d="M140.469,25 C145.225,25 149.982,25 154.739,25 " fill="none" id="First Activity-Second Activity" style="stroke: #A80036; stroke-width: 1.0;"/><polygon fill="#A80036" points="159.901,25,150.901,21,154.901,25,150.901,29,159.901,25" style="stroke: #A80036; stroke-width: 1.0;"/><!--link Second Activity to Third Activity--><path d="M274.094,25 C278.904,25 283.714,25 288.524,25 " fill="none" id="Second Activity-Third Activity" style="stroke: #A80036; stroke-width: 1.0;"/><polygon fill="#A80036" points="293.743,25,284.743,21,288.743,25,284.743,29,293.743,25" style="stroke: #A80036; stroke-width: 1.0;"/><!--
@startuml
(*) -> "First Activity"
-> "Second Activity"
-> "Third Activity"
@enduml

PlantUML version 1.2018.14(Fri Dec 21 11:33:16 EST 2018)
(GPL source distribution)
Java Runtime: OpenJDK Runtime Environment
JVM: OpenJDK 64-Bit Server VM
Java Version: 1.8.0_91-b14
Operating System: Linux
OS Version: 2.6.32-642.6.2.el6.x86_64
Default Encoding: UTF-8
Language: en
Country: US
--></g></svg>